[
   {
        "name": "রাজ শকুন : Red-headed Vulture",
        "introductionInfo":"শকুন এক প্রকার পাখি। এটি মৃত প্রাণীর মাংস খেয়ে থাকে। সাধারণত এরা অসুস্থ ও মৃতপ্রায় প্রাণীর চারিদিকে উড়তে থাকে এবং প্রাণীটির মরার জন্য অপেক্ষা করে। পাখিগুলো তীক্ষ্ণ দৃষ্টির অধিকারী শিকারী পাখিবিশেষ। শকুনের গলা, ঘাড় ও মাথায় কোনো পালক থাকে না। প্রশস্ত ডানায় ভর করে আকাশে ওড়ে। মহীরুহ বলে পরিচিত বট, পাকুড়, অশ্বত্থ, ডুমুর প্রভৃতি বিশালাকার গাছে সাধারণত লোকচক্ষুর অন্তরালে শকুন বাসা বাঁধে। সাধারণত গুহায়, গাছের কোটরে বা পর্বতের চূড়ায় ১-৩টি সাদা বা ফ্যাকাশে ডিম পাড়ে।",
        "scientificName": "Sarcogyps calvus",
        "taxonomyInfo": "জগৎ: Animalia,পর্ব: Chordata,শ্রেণি: Aves,বর্গ: Accipitriformes,পরিবার: Accipitridae,গণ: Sarcogyps,প্রজাতি : S. calvus",
        "residenceInfo": "সারা বিশ্বে প্রায় ১৮ প্রজাতির শকুন দেখা যায়, এর মধ্যে পশ্চিম গোলার্ধে ৭ প্রজাতির এবং পূর্ব গোলার্ধে (ইউরোপ, আফ্রিকা ও এশিয়া) ঈগলের সাথে সম্পর্কিত ১১ প্রজাতির শকুন দেখা যায়। দক্ষিণ এশিয়ার দেশ বাংলাদেশে প্রায় ৬ প্রজাতির শকুন রয়েছে, এর মধ্যে ৪ প্রজাতি স্থায়ী আর ২ প্রজাতি পরিযায়ী।বাংলাদেশে সর্বশেষ ২০১৪ সালের শুমারি বলছে, এই মুহূর্তে দেশটি মোটে ২৬০টি শকুন রয়েছে। সবগুলোই বাংলা শকুন। এ প্রজাতি ছাড়াও দেশে আরো পাঁচ জাতের শকুন দেখা যায়। কিন্তু সেসব প্রজাতির শকুন অনিয়মিত ভিত্তিতে দেখা যায়। প্রকৃতি সংরক্ষণ বিষয়ক আন্তর্জাতিক ইউনিয়ন আইইউসিএন বলছে, শকুন এখন সংস্থাটির লাল তালিকাভুক্ত প্রাণী। এর মানে হচ্ছে, প্রকৃতি থেকে যদি কোন প্রাণীর মোট সংখ্যার ৯০ শতাংশই হারিয়ে গিয়ে থাকে তাহলে সেটি রেডলিষ্ট বা লাল-তালিকাভুক্ত প্রাণী হয়।",
        "foodHabitsInfo": "এদের মাথা, ঘাড় এবং গলায় পালক নেই, তাদের ঠোঁট খুব ধারালো।এরা ময়লার ভাগাড় থেকে খাবার খুঁজে খায়। অনেক উপর থেকে এরা মৃত পশুর দেহ দেখতে পায়, তারপর সেখানে নেমে আসে, তারপর সেই মৃত পশুর দেহ দ্রুত সাবাড় করে। তাদের পাকস্থলীর জারণ ক্ষমতা অসাধারণ, মৃত পশুর দেহ তো বটেই, তাদের হাড় পর্যন্ত হজম করে ফেলতে পারে শকুন।",
        "theCauseOfExtinctionInfo": " আইইউসিএন বলছে, পশু চিকিৎসায় বিশেষ করে গরুর চিকিৎসায় ব্যবহার হওয়া দুইটি ওষুধ ডাইক্লোফেনাক ও কেটোপ্রোফেন জাতীয় ওষুধের বহুল ব্যবহারের ফলেই মূলত শকুন প্রায় বিলুপ্ত হয়ে গেছে দক্ষিণ এশিয়া থেকে। শকুন গবেষক মি. আলম বলছেন, ডাইক্লোফেনাক ও কেটোপ্রোফেন জাতীয় ওষুধ খাওয়া প্রাণীর মাংস খাওয়ার তিন মিনিটের মধ্যে কিডনি বিকল হয়ে মারা যায় শকুন। কারণ শকুনের এনজাইম নাই। এনজাইম হচ্ছে এক ধরণের প্রোটিন জাতীয় পদার্থ যা জীবদেহে অল্পমাত্রায় বিদ্যমান থেকে বিক্রিয়ার হারকে ত্বরান্বিত করে, কিন্তু বিক্রিয়ার পর নিজেরা অপরিবর্তিত থাকে। এর বাইরে এখন গবাদি পশু পালন এবং চিকিৎসা পদ্ধতিতে গত কয়েক দশকে ব্যাপক পরিবর্তন হয়েছে, যে কারণে আগের মত সংখ্যায় গরু বা বড় প্রাণী অসুখে মারা যায় না। ফলে শকুনের খাদ্য সংকট হচ্ছে। এছাড়া বনাঞ্চল উজাড় এবং বড় উঁচু গাছপালা কমে যাওয়ার ফলে নিরাপদ আবাসস্থলের ঘাটতি হচ্ছে শকুনের। এর বাইরে শকুনের প্রজনন প্রক্রিয়াও জটিল, যে কারণে এদের বংশবৃদ্ধি হার অত্যন্ত ধীর। শকুন বছরে একটি ডিম পাড়ে, এবং সেই ডিম ফুটে বাচ্চা হওয়ার ক্ষেত্রে সাফল্যের হার মাত্র ৪০ শতাংশ। ফলে এদের প্রজননের হার খুব ধীর।",
        "wayOfSavingInfo": "শকুন রক্ষায় বাংলাদেশ সরকার এবং আইইউসিএন বেশ কিছু উদ্যোগ নিয়েছে। বাংলাদেশের সরকার বন্যপ্রাণী আইন ২০১২ তে শকুনকে বিপন্ন প্রাণী হিসেবে ঘোষণা দিয়ে একে রক্ষায় বিশেষ পদক্ষেপ নিয়েছে। বন ও পরিবেশ মন্ত্রণালয়ের ওয়েবসাইটে উল্লেখ করা হয়েছে, ২০১৬ সালে এক দশকব্যাপী অর্থাৎ ২০১৬-২০২৫ পর্যন্ত বাংলাদেশ শকুন সংরক্ষণ কর্মপরিকল্পনা নিয়েছে। বন্যপ্রাণী আইন ২০১২ তে শকুন সংরক্ষণ কর্মসূচীতে বলা হয়েছে, সরকার ২০১০ সালে পশু চিকিৎসায় ডাইক্লোফেনাক, এবং ২০১৭ সালে দেশের দুইটি এলাকায় কিটোপ্রোফেনের ব্যবহার নিষিদ্ধ করা হয়েছে। এর বাইরে ২০১৩ সালে জাতীয় শকুন সংরক্ষণ কমিটি গঠন করা হয়েছে। ২০১৪ সালে দেশের দুইটি অঞ্চলকে শকুনের জন্য নিরাপদ এলাকা ঘোষণা করা হয়েছে।\nপ্রথমটি সিলেট, ঢাকা এবং চট্টগ্রাম বিভাগের কিছু অংশ, এবং দ্বিতীয়টি খুলনা, বরিশাল এবং ঢাকা বিভাগের কিছু অংশ মিলে মোট সাড়ে ৪৭ হাজার বর্গ কিলোমিটার এলাকাকে শকুনের জন্য নিরাপদ এলাকা ঘোষণা করা হয়েছে। এছাড়া আইইউসিএনের সাথে সরকারের যৌথ ব্যবস্থাপনায় ২০১৫ সালে শকুনের প্রজননকালীন সময়ের জন্য দুইটি ফিডিং সেন্টার স্থাপন করা হয়েছে। একটি রেমা-কালেঙ্গা বন্যপ্রাণী অভয়ারণ্যে এবং অপরটি সুন্দরবনে। রেমা-কালেঙ্গায় এক সময় বাংলাদেশের সবচেয়ে বেশি শকুন দেখা যেত। এছাড়া ২০১৬ সালে অসুস্থ এবং আহত শকুন উদ্ধার ও পুনর্বাসনের জন্য দিনাজপুরের সিংড়ায় একটি শকুন উদ্ধার এবং পরিচর্যা কেন্দ্র স্থাপন করা হয়েছে।",
        "pictureUrlLink": "https://ibb.co/Ph7jS2y"
    },
    {
        "name": "নীলগাই : Blue Cow",
        "introductionInfo":"নীলগাই নামের মধ্যে ‘নীল’ এবং ‘গাই’ দুটি শব্দ পাওয়া যায়। কিন্তু বাহ্যিক দিক থেকে দেখতে এরা অনেকটাই ঘোড়ার মতো। ঘোড়ার যেমন লম্বা ঘাড় এবং এর মধ্যে হালকা কেশর থাকে। এদের মাথা খানিকটা সরু এবং ঘোড়ার ন্যায় এদের শক্ত পা থাকে। আবার পিঠের শেষে এদের গরুর মতো লেজও রয়েছে। আকারে ভারতীয় গরুর চেয়ে বড় হয়। লম্বায় প্রায় ৫ ফুট হয়ে থাকে। গড় ওজন ৩০০ কেজির মতো হয়। এরা সাধারণত পেছনের পায়ের উপর ভর করে ঘাড় উঁচু করে পরিবেশ পর্যবেক্ষণ করে। তখন এদের অনেকটা কুঁজো মনে হয়। মাদি এবং পুরুষ নীলগাইয়ের মধ্যে স্পষ্ট পার্থক্য রয়েছে। প্রথম দেখাতেই যদি নীলগাইয়ের মাথায় শিং নজরে আসে, তাহলে চোখ বন্ধ করে সেটি পুরুষ নীলগাই বলে চিহ্নিত করা যায়। এছাড়া পুরুষ নীলগাইদের গায়ের চামড়ার রঙ ধূসর থেকে নীলচে-ধূসর বর্ণের হয়ে থাকে। এদের গাল এবং ঠোঁটের চারদিকের রঙ কিছুটা সাদাটে হয়ে থাকে। এদের কান এবং লেজের শীর্ষ কালচে রঙের। পুরুষদের শিংজোড়া ১৫ থেকে ২৪ সেন্টিমিটার পর্যন্ত লম্বা হয়। মাদি নীলগাইদের গায়ের রঙ হয় বাদামী। এদের দেহেও পুরুষদের ন্যায় সাদা ফোঁটা দেখা যায়। কিন্তু এদের কোনো শিং নেই। এদের ঘাড়েও কেশর রয়েছে।",
        "scientificName": "Bocephalus tragocamelus",
        "taxonomyInfo": "জগৎ: Animalia,পর্ব: Chordata,শ্রেণি: Mammalia,বর্গ: Artiodactyla,পরিবার: Bovidae,Subfamily: Bovinae,গণ: Boselaphus,প্রজাতি : B. tragocamelus",
        "residenceInfo": "ভারতের অধিকাংশ অঞ্চলেই নীলগাই দেখা যায়। পশ্চিমবঙ্গ, আসাম, মালাবার উপকূল ও বঙ্গোপসাগর সংলগ্ন অঞ্চলগুলো বাদে উত্তরে হিমালয়ের পাদদেশ থেকে দক্ষিণে কর্ণাটক প্রদেশ পর্যন্ত এদের দেখা মেলে। এছাড়া পাকিস্তান ও নেপালের ভারতীয় সীমান্তবর্তী এলাকায় নীলগাই দেখা যায়। চীনেও নীলগাই রয়েছে বলে জানা যায়। ১৯৫০ এর পূর্ব পর্যন্ত বাংলাদেশের দিনাজপুর এলাকায় নীলগাই দেখা গেলেও বর্তমানে তা বিলুপ্ত।",
        "foodHabitsInfo": "খাদ্যাভ্যাসের দিক থেকে তৃণভোজী প্রাণী। এদের খাবারের তালিকায় ঘাস, লতাপাতা, গুল্ম, ঝোপ ইত্যাদি তৃণজাতীয় খাদ্য রয়েছে। তাই এসব খাবারের প্রাচুর্য রয়েছে এমন জঙ্গলে বা জলাভূমির দিকে নীলগাইদের বেশি দেখা যায়। এরা দিবাচর প্রাণী। প্রচণ্ড গরমেও এদের দিনের বেলায় দিব্যি খাবারের সন্ধানে চলাফেরা করতে দেখা যায়। এরা তখন প্রচুর পরিমাণে পানি পান করে। তবে গ্রীষ্মকাল ব্যতীত অন্যান্য সময় এরা পানি না খেয়ে ২/৩ দিন কাটিয়ে দিতে পারে।",
        "theCauseOfExtinctionInfo": "দেশের উত্তর-পশ্চিম অঞ্চলের সীমান্তবর্তী জেলায় একসময় অবাধ বিচরণ ছিল নীলগাইয়ের। তবে বন্য প্রাণী শিকারী ও অসচেতনতায় দিনদিন এই প্রাণীটি বিলুপ্তির মুখে পড়েছে। অনিয়ন্ত্রিত শিকার, বাসস্থান ও খাদ্যের অভাবসহ প্রতিকূল পরিবেশের কারণে প্রাণীটি অনেক আগেই বাংলাদেশ থেকে বিলুপ্ত হয়ে গেছে। ",
        "wayOfSavingInfo": "বর্তমানে বাংলাদেশ থেকে বিলুপ্ত।",
        "pictureUrlLink": "https://ibb.co/JHmbTbg"
    },
    {
        "name": "মেনি মাছ : Gangetic leaffish",
        "introductionInfo":" মেনি মাছটির দেহের রং কালচে সবুজ। দেহ পার্শ্বীয়ভাবে চাপা এবং দেহের দু’পাশে হলুদ সবুজাভ ডোরা দাগ থাকে। পাখনা সবুজাভ থেকে হলুদাভ বর্ণের হয়ে থাকে। দেহ আঁইশ দ্বারা আবৃত থাকে। এর লেজ গোলাকার এবং মুখ তুলনামূলকভাবে বড়। এরা প্রায় ২০ সেন্টিমিটার পর্যন্ত লম্বা হয়ে থাকে।",
        "scientificName": "Nandus nandus",
        "taxonomyInfo": "Domain: Eukaryota,Kingdom: Animalia,Phylum: Chordata,Class: Actinopterygii,Family: Nandidae,Genus: Nandus,Species: N.nandus",
        "residenceInfo": "খাল-বিল, হাওড়-বাওড় এবং নদীতে এরা বাস করে। পানির তলদেশে কর্দমাক্ত পরিবেশে বসবাস করে। বর্ষকালে প্লাবিত ধানক্ষেত বা পাটক্ষেতে এদেরকে পাওয়া যায়।",
        "foodHabitsInfo": "প্রাকৃতিক পরিবেশ থেকে খাদ্য গ্রহণ করে",
        "theCauseOfExtinctionInfo": "নদী-নালা শুকিয়ে যাওয়া, ফসলি জমিতে মাত্রাতিরিক্ত সার ও কীটনাশক ব্যবহারের ফলে অন্যান্য মাছের সঙ্গে এই মাছটিও বিলুপ্তির পথে।এক সময় গ্রাম-গঞ্জের মানুষ খাল-বিল, ডোবা-নালায় জমে থাকা পানি সেচে ছোট মাছ ধরত। প্রাকৃতিক ও মানুষের সৃষ্ট বিপর্যয়ের কারণে সে সব মাছের অনেক প্রজাতিই এখন আর দেখতে পাওয়া যায় না। বিলুপ্তপ্রায় মেনি মাছকে কেউ কেউ ভেদা মাছও বলে থাকেন।  এ মাছটি একসময় বাংলাদেশের জলাশায়ে প্রচুর পরিমাণ পাওয়া যেত। বর্তমানে এদের অস্তিত্বই হুমকির মুখে।",
        "wayOfSavingInfo": "কৃত্রিম উপায়ে সংরক্ষণ করতে হবে যেমন পুকুরে ও নদীতে",
        "pictureUrlLink": "https://ibb.co/JHmbTbg"
    },
    {
        "name": "তালিপাম : Talipam",
        "introductionInfo":"একটি মনোকার্পিক গুপ্তবীজি উদ্ভিদ। এ উদ্ভিদ জীবনে একবার ফুল ও ফল দিয়ে মারা যায়। তালিপামের কাণ্ড ১০ মিটার উঁচু, ব্যাস প্রায় ৭০ সেন্টিমিটার পর্যন্ত। পাতা লম্বাবৃন্ত যুক্ত। পাতা প্রায় গোল, পুষ্পমঞ্জুরি ৬ মিটার বা তার চেয়েও বড়, দেখতে পিরামিডের মতো। এদের ফুল সপুষ্পক উদ্ভিদের মধ্যে সবচেয়ে বড়। এই প্রজাতির উদ্ভিদটি প্রথম আবিষ্কৃত হয় ১৯১৯ সনে। ব্রিটিশ অরণ্যতরু সন্ধানী উইলিয়াম রক্সবার্গ ভারতের পূর্বাঞ্চলে এই প্রজাতির গাছের সন্ধান পেয়েছিলেন।",
        "scientificName": "Corypha taliera",
        "taxonomyInfo": "জগৎ: Plantae,বর্গ: Arecales,পরিবার: Arecaceae,গণ: Corypha,প্রজাতি : C. taliera",
        "residenceInfo": "একটি মনোকার্পিক গুপ্তবীজি উদ্ভিদ। এ উদ্ভিদ জীবনে একবার ফুল ও ফল দিয়ে মারা যায়। তালিপামের কাণ্ড ১০ মিটার উঁচু, ব্যাস প্রায় ৭০ সেন্টিমিটার পর্যন্ত। পাতা লম্বাবৃন্ত যুক্ত। পাতা প্রায় গোল, পুষ্পমঞ্জুরি ৬ মিটার বা তার চেয়েও বড়, দেখতে পিরামিডের মতো। এদের ফুল সপুষ্পক উদ্ভিদের মধ্যে সবচেয়ে বড়। এই প্রজাতির উদ্ভিদটি প্রথম আবিষ্কৃত হয় ১৯১৯ সনে। ব্রিটিশ অরণ্যতরু সন্ধানী উইলিয়াম রক্সবার্গ ভারতের পূর্বাঞ্চলে এই প্রজাতির গাছের সন্ধান পেয়েছিলেন।",
        "foodHabitsInfo": "গাছ সালেকসংশ্লেষণ প্রক্রিয়ায় নিজের খাদ্য নিজেই তৈরি করে",
        "theCauseOfExtinctionInfo": "১৭৯৯ সালে সর্ব ভারতের পূর্বাঞ্চলে তালিপাম প্রজাতির গাছের সন্ধান পেয়েছিলেন ব্রিটিশ উদ্ভিদবিজ্ঞানী উইলিয়াম রক্সবার্গ। স্থানীয়ভাবে যা বুনো তাল নামে পরিচিত ছিল। তিনি জানিয়েছিলেন, বুনো তাল পূর্ববাংলার অ্যানডেমিক উদ্ভিদ। পশ্চিমবঙ্গের বীরভূম জেলার শান্তি নিকেতন এলাকায় আরো একটি তালিপাম গাছ ছিল। ১৯৭৯ সালে গাছটিতে ফুল আসতেই স্থানীয় সাঁওতালরা অশুভ মনে করে কেটে ফেলে। অবশ্য এর আগে ১৯৫০ সালে ঢাকা বিশ্ববিদ্যালয়ের উদ্ভিদ বিজ্ঞান বিভাগের অধ্যাপক এম. সালাম খান ঢাকা বিশ্ববিদ্যালয়ের বৃক্ষটিকে তালিপাম প্রজাতি হিসেবে চিহ্নিত করেন। ১৯৭৯ সালের পর পৃথিবীর অন্য কোথাও এ প্রজাতির সন্ধান না পাওয়ায় ঢাকা বিশ্ববিদ্যালয়ের উদ্ভিদটি বিশ্বের একমাত্র বন্যতাল প্রজাতির নমুনা হিসেবে বিবেচিত হয়। যা তালিপাম নামে পরিচিত। ১৯৯৮ সালে আইইউসিএন তালিপামকে বিশ্বের মহাবিপন্ন উদ্ভিদ হিসেবে ঘোষণা করে।",
        "wayOfSavingInfo": "সরকারি বাঙলা কলেজের রসায়নের সহকারী অধ্যাপক ড. আখতারুজ্জামান চৌধুরী জানান, তালিপামের ফুল-ফল থেকে সক্রিয় রাসায়নিক উপাদান সংশ্লেষণের উদ্দেশ্য নিয়ে গবেষণা করি। ২০০১ সালে জানতে পারি ঢাকা বিশ্ববিদ্যালয়ে তালিপাম নামে একটি গাছ আছে। এটি ১০০ বছর পর মাত্র একবার ফুল-ফল দিয়ে মারা যাবে। কাকতালীয়ভাবে  ২০০৮ সালের আগস্ট-সেপ্টেম্বরে গাছটিতে মঞ্জরী বের হয়। আমার মনে চিন্তা জাগে- যে গাছ একবার ফুল-ফল দিয়ে মরে যায় সে গাছ ঔষধি। যেহেতু তালিপাম গাছটি ১০০ বছর পর একবার ফুল-ফল দিয়ে মরে যাবে- নিশ্চয় এর ফুল-ফল থেকে গুরুত্বপূর্ণ ঔষধি উপাদান পাওয়া যাবে। এ কারণে তালিপাম নিয়েই পিএইচডি কোর্সের গবেষণা করার সিদ্ধান্ত নেই। সে ভাবনা থেকেই প্রতি সপ্তাহে ঢাকা বিশ্ববিদ্যালয়ের ওই গাছের কাছে গিয়ে নিবিড় পর্যবেক্ষণ করতাম। তিনি আরো বলেন, ২০১০ সালের জানুয়ারি-ফেব্রুয়ারি মাসের এক ভোরে গাছের নিচে গিয়ে দেখি ৪-৫টা বীজ মাটিতে পড়েছে। সেগুলো বাসায় নিয়ে অঙ্কুরোদগমের জন্য বারান্দায় টবে দিলাম। পাশাপাশি গাছ থেকে ঝরে পড়া ফল সংগ্রহ করতে থাকলাম। এভাবে প্রায় এক হাজারের মতো বীজ সংগ্রহ করলাম। ৫০০ বীজ রেখে দিলাম গবেষণার জন্য। অঙ্কুরোদগমের জন্য ঢাকা বিশ্ববিদ্যালয়ের ফার্মেসি বিভাগের মেডিসিনাল প্লান্ট গার্ডেনে পলিব্যাগে দিলাম ৩০০ বীজ এবং বাকি ২০০ দিলাম আজিমপুর কোয়ার্টারের নিচে। টবে দেওয়ার দুই-আড়াই মাসের মধ্যে বীজগুলো অঙ্কুরোদগম হল। অঙ্কুরোদগমের পর চারাগুলো ৮-১০ ইঞ্চি হয়ে গেলে সিদ্ধান্ত নেই এগুলো দেশব্যাপী ছড়িয়ে দেবো- যাতে গাছটি যথাযথ সংরক্ষণ করা যায়। বাংলাদেশ রেফারেন্স ইনস্টিটিউট ফর কেমিক্যাল মেজারমেন্ট-এর মহাপরিচালক ড. মালা খান বলেন, আমরা একটা ইতিহাসের অংশ হলাম। উদ্ভিদ বিজ্ঞানের ভাষা অনুযায়ী তালিপাম ১০০ বছর পর ফুল-ফল দিয়ে মরে যাবে। অথচ আমরা লক্ষ্য করছি মাত্র ১০-১১ বছরের মাঝামাঝি টাঙ্গাইল সার্কিট হাউজের তালিপাম গাছে ফুল ফুটেছে। এই আশ্চর্যজনক ঘটনার কারণেই বাংলাদেশ বিজ্ঞান গবেষণা প্রতিষ্ঠান এখানে এসেছে। ১০০ বছরের আগেই একটি ইমম্যাচিউর গাছে কেন ফুল এলো- এর পরিণতি কোনদিকে যাচ্ছে। আমরা এসব বিষয় জানার চেষ্টা করছি। একই সময়ে লাগানো বাকি ৯৯টা গাছ পর্যবেক্ষণে রাখা প্রয়োজন। যদি নতুন কোনো তথ্য থাকে সেগুলো সারাবিশ্বের বিজ্ঞানীদের কাছে আমরা তুলে ধরার চেষ্টা করব। এ বিষয়ে টাঙ্গাইলের জেলা প্রশাসক ড. আতাউল গনি বলেন, আমরা গাছটি দেখাশোনা করছি। বিজ্ঞানীরা এখানে এসেছেন। তাদের পরামর্শ মতো গাছটিকে আমরা পরিচর্যা করব। বিরল প্রজাতির বৃক্ষ রক্ষা করে জীববৈচিত্র্য ধরে রাখা আমাদের পরিবেশের জন্য অত্যন্ত গুরুত্বপূর্ণ। সার্কিট হাউজের মতো একটা গুরুত্বপূর্ণ স্থানে এ রকম বিপন্ন প্রায় একটি বৃক্ষ থাকলে টাঙ্গাইল জেলা ইতিহাসের স্বাক্ষী হয়ে থাকবে।",
        "pictureUrlLink": "https://ibb.co/JHmbTbg"
    }


]
